Michael Lydeamore - Slides – conmat: Programmatic generation of synthetic contact matrices
…
Getting a contact matrix is easy:

world_data <- socialmixr::wpp_age()
population <- age_population(
    data = world_data,
    location_col = country,
    location = "Australia",
    age_col = lower.age.limit,
    year_col = year,
    year = 2015
)

population

# A tibble: 21 × 5 (conmat_population)
 - age: lower.age.limit
 - population: population
   country    year population lower.age.limit upper.age.limit
   <chr>     <int>      <dbl>           <dbl>           <dbl>
 1 Australia  2015    1545114               0               4
 2 Australia  2015    1521110               5               9
 3 Australia  2015    1416482              10              14
 4 Australia  2015    1480341              15              19
 5 Australia  2015    1663584              20              24
 6 Australia  2015    1763281              25              29
 7 Australia  2015    1753076              30              34
 8 Australia  2015    1574157              35              39
 9 Australia  2015    1655520              40              44
10 Australia  2015    1559506              45              49
# ℹ 11 more rows
…
